{
    "variables":{
        "applicaiton_name": "webserver-apache",
        "application_version": "1.0.0",
        "region": "us-east-1",
        "ami_name": "apache-ami",
        "instance_type": "t2.micro",
        "source_ami": "ami-04505e74c0741db8d",
        "ami_aws_account_id": "942537291803",
        "ssh_username": "ubuntu",
        "vpc_id": "vpc-0768827f2f50a26ac",
        "subnet_id": "subnet-036d81e3d88d4fa7b"
    },
    "builders": [
        {
            "name": "{{ user `ami_name` }}",
            "type": "amazon-ebs",
            "profile": "vd",
            "ssh_username": "{{user `ssh_username`}}",
            "communicator": "ssh",
            "force_deregister": "true",
            "force_delete_snapshot": "true",
            "associate_public_ip_address": "true",
            "region": "{{ user  `region` }}",
            "source_ami": "{{ user `source_ami` }}",
            "instance_type":  "{{ user `instance_type` }}",
            "ami_name": "{{ user `ami_name` }}-{{ user `application_version` }}",
            "subnet_id": "{{user `subnet_id`}}",
            "run_tags": {
            "Name": "packer-apache-ami"
        }
    }
    ],
    "provisioners": [
        {
            "type": "shell",
            "script": "web.sh"
        }
    ]
}