{
    "variables": {
        "applicaiton_name": "mysql-server",
        "application_version": "1.0.0",
        "region": "us-east-1",
        "ami_name": "mysql-ami",
        "instance_type": "t2.micro",
        "source_ami": "ami-0e472ba40eb589f49",
        "ami_shared_accounts": "942537291803"

    },
    "builders": [
        {
            "name": "{{user `applicaiton_name`}}",
            "type": "amazon-ebs",
            "profile": "vd",
            "ssh_username": "ubuntu",
            "force_deregister": "true",
            "force_delete_snapshot": "true",
            "associate_public_ip_address": "true",
            "region": "{{user `region`}}",
            "source_ami": "{{user `source_ami`}}",
            "instance_type": "{{user `instance_type`}}",
            "ami_name": "{{user `applicaiton_name`}}-{{user `application_version`}}",
            "ami_users": "{{user `ami_shared_accounts`}}",
            "tags": {
                "Name": "{{user `applicaiton_name`}}",
                "createdBy": "Packer"
            }
        }
    ],
    "provisioners": [
        {
            "type": "shell",
            "inline": [
                "sudo apt-get update",
                "sudo apt-get install unzip wget curl git -y",
                "sudo apt-get install software-properties-common -y",
                "sudo add-apt-repository --yes --update ppa:ansible/ansible",
                "sudo apt-get install ansible -y"

            ]
        },
        {
            "type": "ansible-local",
            "playbook_file": "./mysql.yml",
            "extra_arguments": [
                "-vvvv"
            ]
        }

    ]
}
