{
    "variables": {
        "applicaiton_name": "webserver-apache",
        "application_version": "1.0.0",
        "region": "us-east-1",
        "ami_name": "apache-ami",
        "instance_type": "t2.micro",
        "source_ami": "ami-0a8b4cd432b1c3063",
        "ami_shared_accounts": "942537291803"

    },
    "builders": [
        {
            "name": "{{user `applicaiton_name`}}",
            "type": "amazon-ebs",
            "profile": "vd",
            "ssh_username": "ec2-user",
            "force_deregister": "true",
            "force_delete_snapshot": "true",
            "associate_public_ip_address": "true",
            "region": "{{user `region`}}",
            "source_ami": "{{user `source_ami`}}",
            "instance_type": "{{user `instance_type`}}",
            "ami_name": "{{user `applicaiton_name`}}-{{user `application_version`}}",
            "ami_users": "{{user `ami_shared_accounts`}}",
            "tags": {
                "Name": "{{user `applicaiton_name`}}",
                "createdBy": "Packer"
            }
        }
    ],
    "provisioners": [
        {
            "type": "shell",
            "inline": [
                "sudo amazon-linux-extras install epel"
            ]
        },
        {
            "type": "shell",
            "inline": [
                "sudo yum install unzip wget curl git -y"
            ]
        },
        {
            "type": "shell",
            "inline": [
                "sudo yum install ansible -y",
                "sudo yum install httpd -y",
                "sudo systemctl start httpd.service",
                "sudo systemctl enable httpd.service",
                "sudo usermod -a -G apache ec2-user",
                "/bin/bash",
                "sudo chown -R ec2-user:apache /var/www/",
                "sudo chmod 777 /var/www/"
            ]
        },
        {
            "type": "shell",
            "script": "./copyCode.sh"

        },
        {
            "type": "ansible-local",
            "playbook_file": "./timezone.yml",
            "extra_arguments": [
                "-vvvv"
            ]
        }

    ]
}
